^C:\USERS\NASHANDRAPC\SOURCE\REPOS\FIBONACCINUMBERS\FIBONACCINUMBERS\STDAFX.CPP
C:\USERS\NASHANDRAPC\SOURCE\REPOS\FIBONACCINUMBERS\FIBONACCINUMBERS\DEBUG\FIBONACCINUMBERS.PCH
C:\USERS\NASHANDRAPC\SOURCE\REPOS\FIBONACCINUMBERS\FIBONACCINUMBERS\DEBUG\VC141.PDB
C:\USERS\NASHANDRAPC\SOURCE\REPOS\FIBONACCINUMBERS\FIBONACCINUMBERS\DEBUG\VC141.IDB
C:\USERS\NASHANDRAPC\SOURCE\REPOS\FIBONACCINUMBERS\FIBONACCINUMBERS\DEBUG\STDAFX.OBJ
^C:\USERS\NASHANDRAPC\SOURCE\REPOS\FIBONACCINUMBERS\FIBONACCINUMBERS\FIBONACCINUMBERS.CPP
C:\USERS\NASHANDRAPC\SOURCE\REPOS\FIBONACCINUMBERS\FIBONACCINUMBERS\DEBUG\VC141.PDB
C:\USERS\NASHANDRAPC\SOURCE\REPOS\FIBONACCINUMBERS\FIBONACCINUMBERS\DEBUG\VC141.IDB
C:\USERS\NASHANDRAPC\SOURCE\REPOS\FIBONACCINUMBERS\FIBONACCINUMBERS\DEBUG\FIBONACCINUMBERS.OBJ
