^C:\USERS\NASHANDRAPC\SOURCE\REPOS\FIBONACCINUMBERS\FIBONACCINUMBERS\DEBUG\FIBONACCINUMBERS.OBJ|C:\USERS\NASHANDRAPC\SOURCE\REPOS\FIBONACCINUMBERS\FIBONACCINUMBERS\DEBUG\STDAFX.OBJ
C:\USERS\NASHANDRAPC\SOURCE\REPOS\FIBONACCINUMBERS\DEBUG\FIBONACCINUMBERS.EXE
C:\USERS\NASHANDRAPC\SOURCE\REPOS\FIBONACCINUMBERS\DEBUG\FIBONACCINUMBERS.ILK
C:\USERS\NASHANDRAPC\SOURCE\REPOS\FIBONACCINUMBERS\DEBUG\FIBONACCINUMBERS.PDB
